This is BibTeX, Version 0.99dThe top-level auxiliary file: sample2.aux
The style file: raa.bst
Database file #1: mybibfile.bib
Warning--to sort, need author or key in HI2016
Warning--to sort, need author or key in Dante2014
(There were 2 warnings)
