\relax 
\providecommand\hyper@newdestlabel[2]{}
\providecommand\HyperFirstAtBeginDocument{\AtBeginDocument}
\HyperFirstAtBeginDocument{\ifx\hyper@anchor\@undefined
\global\let\oldcontentsline\contentsline
\gdef\contentsline#1#2#3#4{\oldcontentsline{#1}{#2}{#3}}
\global\let\oldnewlabel\newlabel
\gdef\newlabel#1#2{\newlabelxx{#1}#2}
\gdef\newlabelxx#1#2#3#4#5#6{\oldnewlabel{#1}{{#2}{#3}}}
\AtEndDocument{\ifx\hyper@anchor\@undefined
\let\contentsline\oldcontentsline
\let\newlabel\oldnewlabel
\fi}
\fi}
\global\let\hyper@last\relax 
\gdef\HyperFirstAtBeginDocument#1{#1}
\providecommand*\HyPL@Entry[1]{}
\citation{HI2016}
\citation{jansky1933radio}
\citation{CJBakker1945}
\citation{muller1951observation}
\citation{christiansen1952preliminary}
\citation{Muller1957}
\citation{kellermann2001development}
\citation{Middelberg2008}
\citation{bekhti2016hi4pi}
\citation{santo2013mapping}
\citation{Doran2007}
\HyPL@Entry{0<</S/r>>}
\@writefile{toc}{\contentsline {section}{\numberline {1}Introduction}{i}{section.1}}
\newlabel{sect:intro}{{1}{i}{Introduction}{section.1}{}}
\citation{SALSAS2018}
\citation{SALSAS2018}
\citation{Hossain2018}
\citation{ThomasBensby2017}
\citation{CathyHorellou2015}
\citation{DustinJohnson2012}
\citation{DustinJohnson2012}
\@writefile{brf}{\backcite{HI2016}{{ii}{1}{section.1}}}
\@writefile{brf}{\backcite{jansky1933radio}{{ii}{1}{section.1}}}
\@writefile{brf}{\backcite{CJBakker1945}{{ii}{1}{section.1}}}
\@writefile{brf}{\backcite{muller1951observation}{{ii}{1}{section.1}}}
\@writefile{brf}{\backcite{christiansen1952preliminary}{{ii}{1}{section.1}}}
\@writefile{brf}{\backcite{Muller1957}{{ii}{1}{section.1}}}
\@writefile{brf}{\backcite{kellermann2001development}{{ii}{1}{section.1}}}
\@writefile{brf}{\backcite{Middelberg2008}{{ii}{1}{section.1}}}
\@writefile{brf}{\backcite{bekhti2016hi4pi}{{ii}{1}{section.1}}}
\@writefile{brf}{\backcite{santo2013mapping}{{ii}{1}{section.1}}}
\@writefile{brf}{\backcite{Doran2007}{{ii}{1}{section.1}}}
\@writefile{toc}{\contentsline {section}{\numberline {2}SALSA Radio Telescope}{ii}{section.2}}
\@writefile{toc}{\contentsline {subsection}{\numberline {2.1}Basic Details of SALSA}{ii}{subsection.2.1}}
\@writefile{brf}{\backcite{SALSAS2018}{{ii}{2.1}{subsection.2.1}}}
\@writefile{brf}{\backcite{SALSAS2018}{{ii}{2.1}{subsection.2.1}}}
\@writefile{brf}{\backcite{Hossain2018}{{ii}{2.1}{subsection.2.1}}}
\@writefile{brf}{\backcite{ThomasBensby2017}{{ii}{2.1}{subsection.2.1}}}
\@writefile{brf}{\backcite{DustinJohnson2012}{{ii}{2.1}{table.caption.2}}}
\citation{DustinJohnson2012}
\citation{griffiths2016introduction}
\citation{griffiths2016introduction}
\@writefile{lof}{\contentsline {figure}{\numberline {1}{\ignorespaces SALSA Radio Telescope in Onsala Obsevatory\relax }}{iii}{figure.caption.1}}
\providecommand*\caption@xref[2]{\@setref\relax\@undefined{#1}}
\newlabel{fig:salsa_figure}{{1}{iii}{SALSA Radio Telescope in Onsala Obsevatory\relax }{figure.caption.1}{}}
\newlabel{Tab:salsa_specification}{{1}{iii}{}{table.caption.2}{}}
\@writefile{brf}{\backcite{CathyHorellou2015}{{iii}{\caption@xref {??}{ on input line 113}}{table.caption.2}}}
\@writefile{toc}{\contentsline {subsection}{\numberline {2.2}Basic Diagram of a Small Radio Telescope}{iii}{subsection.2.2}}
\@writefile{brf}{\backcite{DustinJohnson2012}{{iii}{2.2}{subsection.2.2}}}
\citation{Dante2014}
\citation{Dante2014}
\@writefile{lof}{\contentsline {figure}{\numberline {2}{\ignorespaces Simplified Block Diagram of Small Radio Telescope\relax }}{iv}{figure.caption.3}}
\newlabel{fig:block_figure}{{2}{iv}{Simplified Block Diagram of Small Radio Telescope\relax }{figure.caption.3}{}}
\newlabel{Tab:block_summerize}{{2}{iv}{}{table.caption.4}{}}
\@writefile{brf}{\backcite{DustinJohnson2012}{{iv}{\caption@xref {??}{ on input line 163}}{table.caption.4}}}
\@writefile{toc}{\contentsline {section}{\numberline {3}Theory}{iv}{section.3}}
\@writefile{toc}{\contentsline {subsection}{\numberline {3.1}Hyperfine Splitting of Hydrogen}{iv}{subsection.3.1}}
\@writefile{brf}{\backcite{griffiths2016introduction}{{iv}{3.1}{subsection.3.1}}}
\@writefile{brf}{\backcite{griffiths2016introduction}{{iv}{3.1}{subsection.3.1}}}
\newlabel{eq:hamiltonian}{{1}{iv}{Hyperfine Splitting of Hydrogen}{equation.3.1}{}}
\@writefile{lof}{\contentsline {figure}{\numberline {3}{\ignorespaces An illustration of the 21cm transition of the hydrogen atom, caused by the energy change when the electron's spin changes from parallel to the proton's spin to antiparallel.\citep  {Dante2014}\relax }}{v}{figure.caption.5}}
\@writefile{brf}{\backcite{Dante2014}{{v}{3}{figure.caption.5}}}
\newlabel{fig:hyperfine_figure}{{3}{v}{An illustration of the 21cm transition of the hydrogen atom, caused by the energy change when the electron's spin changes from parallel to the proton's spin to antiparallel.\citep {Dante2014}\relax }{figure.caption.5}{}}
\newlabel{eq:biotsavart}{{2}{v}{Hyperfine Splitting of Hydrogen}{equation.3.2}{}}
\newlabel{eq:mag_ang}{{3}{v}{Hyperfine Splitting of Hydrogen}{equation.3.3}{}}
\newlabel{eq:mag_spin}{{4}{v}{Hyperfine Splitting of Hydrogen}{equation.3.4}{}}
\newlabel{eq:mag_electron}{{5}{v}{Hyperfine Splitting of Hydrogen}{equation.3.5}{}}
\newlabel{eq:mag_proton}{{6}{v}{Hyperfine Splitting of Hydrogen}{equation.3.6}{}}
\citation{griffiths2016introduction}
\citation{santo2013mapping}
\citation{santo2013mapping}
\newlabel{eq:magfield_proton}{{7}{vi}{Hyperfine Splitting of Hydrogen}{equation.3.7}{}}
\newlabel{eq:dipole_proton}{{8}{vi}{Hyperfine Splitting of Hydrogen}{equation.3.8}{}}
\newlabel{eq:value_hamiltonian}{{9}{vi}{Hyperfine Splitting of Hydrogen}{equation.3.9}{}}
\newlabel{eq:wave_function}{{10}{vi}{Hyperfine Splitting of Hydrogen}{equation.3.10}{}}
\newlabel{eq:eigen_spin}{{11}{vi}{Hyperfine Splitting of Hydrogen}{equation.3.11}{}}
\newlabel{eq:spin_perturbation}{{12}{vi}{Hyperfine Splitting of Hydrogen}{equation.3.12}{}}
\newlabel{eq:total_spin}{{13}{vi}{Hyperfine Splitting of Hydrogen}{equation.3.13}{}}
\newlabel{eq:energy_gap}{{14}{vi}{Hyperfine Splitting of Hydrogen}{equation.3.14}{}}
\citation{CathyHorellou2015}
\citation{CathyHorellou2015}
\citation{CathyHorellou2015}
\citation{CathyHorellou2015}
\@writefile{lof}{\contentsline {figure}{\numberline {4}{\ignorespaces Geometry of the Galaxy. C is the location of the Galactic center, S that of the Sun, M that of a gas cloud that we want to observe. The SM line is the line-of-sight. The arrow on an arc indicates the direction of rotation of the Galaxy. The arrows on line segments indicate the velocity of the Sun ($\ensuremath  {\mathchoice {\unhbox \voidb@x \hbox {\relax \mathversion  {bold}$\displaystyle V$}} {\unhbox \voidb@x \hbox {\relax \mathversion  {bold}$\textstyle V$}} {\unhbox \voidb@x \hbox {\relax \mathversion  {bold}$\scriptstyle V$}} {\unhbox \voidb@x \hbox {\relax \mathversion  {bold}$\scriptscriptstyle V$}}}_0$) and the gas cloud ($\ensuremath  {\mathchoice {\unhbox \voidb@x \hbox {\relax \mathversion  {bold}$\displaystyle V$}} {\unhbox \voidb@x \hbox {\relax \mathversion  {bold}$\textstyle V$}} {\unhbox \voidb@x \hbox {\relax \mathversion  {bold}$\scriptstyle V$}} {\unhbox \voidb@x \hbox {\relax \mathversion  {bold}$\scriptscriptstyle V$}}}$)\citep  {CathyHorellou2015}.\relax }}{vii}{figure.caption.6}}
\@writefile{brf}{\backcite{CathyHorellou2015}{{vii}{4}{figure.caption.6}}}
\newlabel{fig:galgeo_figure}{{4}{vii}{Geometry of the Galaxy. C is the location of the Galactic center, S that of the Sun, M that of a gas cloud that we want to observe. The SM line is the line-of-sight. The arrow on an arc indicates the direction of rotation of the Galaxy. The arrows on line segments indicate the velocity of the Sun ($\vec {V}_0$) and the gas cloud ($\vec {V}$)\citep {CathyHorellou2015}.\relax }{figure.caption.6}{}}
\newlabel{eq:singlet_state}{{15}{vii}{Hyperfine Splitting of Hydrogen}{equation.3.15}{}}
\@writefile{brf}{\backcite{griffiths2016introduction}{{vii}{3.1}{equation.3.15}}}
\@writefile{brf}{\backcite{santo2013mapping}{{vii}{3.1}{equation.3.15}}}
\@writefile{brf}{\backcite{santo2013mapping}{{vii}{3.1}{equation.3.15}}}
\@writefile{toc}{\contentsline {subsection}{\numberline {3.2}Geometry of Galaxy}{vii}{subsection.3.2}}
\@writefile{brf}{\backcite{CathyHorellou2015}{{vii}{3.2}{subsection.3.2}}}
\citation{CathyHorellou2015}
\citation{CathyHorellou2015}
\citation{griffiths2016introduction}
\@writefile{brf}{\backcite{CathyHorellou2015}{{viii}{3.2}{figure.caption.6}}}
\newlabel{eq:radial_velocity}{{16}{viii}{Geometry of Galaxy}{equation.3.16}{}}
\newlabel{eq:radial_simplified}{{17}{viii}{Geometry of Galaxy}{equation.3.17}{}}
\newlabel{eq:radial_constant}{{18}{viii}{Geometry of Galaxy}{equation.3.18}{}}
\newlabel{eq:distance_cloud}{{19}{viii}{Geometry of Galaxy}{equation.3.19}{}}
\@writefile{brf}{\backcite{CathyHorellou2015}{{viii}{3.2}{equation.3.19}}}
\newlabel{eq:cosine_theory}{{20}{viii}{Geometry of Galaxy}{equation.3.20}{}}
\newlabel{eq:cosine_solution}{{21}{viii}{Geometry of Galaxy}{equation.3.21}{}}
\newlabel{eqn:rpmtocart}{{22}{viii}{Geometry of Galaxy}{equation.3.22}{}}
\citation{CathyHorellou2015}
\citation{CathyHorellou2015}
\citation{CathyHorellou2015}
\citation{DanielDahlin2015}
\citation{Hossain2018}
\citation{ThomasBensby2017}
\citation{santo2013mapping}
\@writefile{brf}{\backcite{CathyHorellou2015}{{ix}{3.2}{equation.3.22}}}
\@writefile{brf}{\backcite{griffiths2016introduction}{{ix}{3.2}{equation.3.22}}}
\@writefile{toc}{\contentsline {section}{\numberline {4}Observations}{ix}{section.4}}
\@writefile{brf}{\backcite{CathyHorellou2015}{{ix}{4}{section.4}}}
\@writefile{toc}{\contentsline {subsection}{\numberline {4.1}Data Reduction}{ix}{subsection.4.1}}
\@writefile{brf}{\backcite{CathyHorellou2015}{{ix}{4.1}{subsection.4.1}}}
\newlabel{eq:doppler}{{23}{ix}{Data Reduction}{equation.4.23}{}}
\newlabel{eq:gaussianfit}{{24}{ix}{Data Reduction}{equation.4.24}{}}
\@writefile{brf}{\backcite{CathyHorellou2015}{{ix}{4.1}{equation.4.24}}}
\@writefile{brf}{\backcite{DanielDahlin2015}{{ix}{4.1}{equation.4.24}}}
\@writefile{brf}{\backcite{Hossain2018}{{ix}{4.1}{equation.4.24}}}
\@writefile{toc}{\contentsline {subsection}{\numberline {4.2}Result}{ix}{subsection.4.2}}
\citation{Hossain2018}
\citation{Hossain2018}
\citation{Hossain2018}
\citation{Hossain2018}
\citation{Hossain2018}
\citation{Hossain2018}
\citation{Hossain2018}
\citation{Hossain2018}
\citation{Hossain2018}
\citation{Hossain2018}
\citation{Hossain2018}
\citation{Hossain2018}
\citation{Hossain2018}
\citation{Hossain2018}
\citation{Hossain2018}
\citation{Hossain2018}
\citation{CathyHorellou2015}
\citation{CathyHorellou2015}
\citation{Hossain2018}
\citation{Hossain2018}
\citation{Hossain2018}
\citation{Hossain2018}
\citation{Hossain2018}
\citation{Hossain2018}
\citation{Hossain2018}
\citation{Hossain2018}
\citation{Hossain2018}
\citation{Hossain2018}
\citation{Hossain2018}
\citation{Hossain2018}
\citation{Hossain2018}
\citation{Hossain2018}
\citation{Hossain2018}
\citation{Hossain2018}
\citation{CathyHorellou2015}
\citation{santo2013mapping}
\@writefile{lof}{\contentsline {figure}{\numberline {5}{\ignorespaces Map of Milky Way at Galactic longitude $\mathit  {l}=6\ensuremath  {^\circ }-225\ensuremath  {^\circ }$ and latitude $\mathit  {l}=0\ensuremath  {^\circ }$\citep  {Hossain2018}\relax }}{x}{figure.caption.7}}
\@writefile{brf}{\backcite{Hossain2018}{{x}{5}{figure.caption.7}}}
\newlabel{fig:map-1}{{5}{x}{Map of Milky Way at Galactic longitude $\mathit {l}=6\degree -225\degree $ and latitude $\mathit {l}=0\degree $\citep {Hossain2018}\relax }{figure.caption.7}{}}
\@writefile{brf}{\backcite{ThomasBensby2017}{{x}{4.2}{subsection.4.2}}}
\@writefile{brf}{\backcite{santo2013mapping}{{x}{4.2}{subsection.4.2}}}
\@writefile{brf}{\backcite{CathyHorellou2015}{{x}{4.2}{figure.caption.14}}}
\@writefile{brf}{\backcite{CathyHorellou2015}{{x}{4.2}{figure.caption.14}}}
\citation{Ferlet2006}
\@writefile{lof}{\contentsline {figure}{\numberline {6}{\ignorespaces Map of Milky Way at Galactic longitude $\mathit  {l}=6\ensuremath  {^\circ }-225\ensuremath  {^\circ }$ and latitude $\mathit  {l}=5\ensuremath  {^\circ }$\citep  {Hossain2018}\relax }}{xi}{figure.caption.8}}
\@writefile{brf}{\backcite{Hossain2018}{{xi}{6}{figure.caption.8}}}
\newlabel{fig:map-2}{{6}{xi}{Map of Milky Way at Galactic longitude $\mathit {l}=6\degree -225\degree $ and latitude $\mathit {l}=5\degree $\citep {Hossain2018}\relax }{figure.caption.8}{}}
\@writefile{toc}{\contentsline {section}{\numberline {5}Limitations and Errors}{xi}{section.5}}
\@writefile{brf}{\backcite{CathyHorellou2015}{{xi}{5}{section.5}}}
\@writefile{brf}{\backcite{santo2013mapping}{{xi}{5}{section.5}}}
\@writefile{toc}{\contentsline {section}{\numberline {6}Importance of this Experiment}{xi}{section.6}}
\@writefile{brf}{\backcite{Ferlet2006}{{xi}{6}{section.6}}}
\@writefile{lof}{\contentsline {figure}{\numberline {7}{\ignorespaces Map of Milky Way at Galactic longitude $\mathit  {l}=6\ensuremath  {^\circ }-225\ensuremath  {^\circ }$ and latitude $\mathit  {l}=10\ensuremath  {^\circ }$\citep  {Hossain2018}\relax }}{xii}{figure.caption.9}}
\@writefile{brf}{\backcite{Hossain2018}{{xii}{7}{figure.caption.9}}}
\newlabel{fig:map-3}{{7}{xii}{Map of Milky Way at Galactic longitude $\mathit {l}=6\degree -225\degree $ and latitude $\mathit {l}=10\degree $\citep {Hossain2018}\relax }{figure.caption.9}{}}
\bibstyle{raa}
\bibdata{mybibfile}
\bibcite{Dante2014}{{1}{2014}{{Dan}}{{}}}
\@writefile{lof}{\contentsline {figure}{\numberline {8}{\ignorespaces Map of Milky Way at Galactic longitude $\mathit  {l}=6\ensuremath  {^\circ }-225\ensuremath  {^\circ }$ and latitude $\mathit  {l}=15\ensuremath  {^\circ }$\citep  {Hossain2018}\relax }}{xiii}{figure.caption.10}}
\@writefile{brf}{\backcite{Hossain2018}{{xiii}{8}{figure.caption.10}}}
\newlabel{fig:map-4}{{8}{xiii}{Map of Milky Way at Galactic longitude $\mathit {l}=6\degree -225\degree $ and latitude $\mathit {l}=15\degree $\citep {Hossain2018}\relax }{figure.caption.10}{}}
\@writefile{toc}{\contentsline {section}{\numberline {7}Conclusions}{xiii}{section.7}}
\bibcite{HI2016}{{2}{2016}{{HI2}}{{}}}
\bibcite{bekhti2016hi4pi}{{3}{2016}{{Bekhti {et~al.}}}{{}}}
\bibcite{CJBakker1945}{{4}{1945}{{C~J~Bakker}}{{}}}
\bibcite{CathyHorellou2015}{{5}{2015}{{Cathy~Horellou \& Varenius}}{{}}}
\bibcite{christiansen1952preliminary}{{6}{1952}{{Christiansen \& Hindman}}{{}}}
\bibcite{DanielDahlin2015}{{7}{2015}{{Daniel~Dahlin}}{{}}}
\bibcite{Doran2007}{{8}{2007}{{Doran {et~al.}}}{{}}}
\bibcite{DustinJohnson2012}{{9}{2012}{{Dustin~Johnson}}{{}}}
\bibcite{Ferlet2006}{{10}{2006}{{Ferlet \& Pennypacker}}{{}}}
\@writefile{lof}{\contentsline {figure}{\numberline {9}{\ignorespaces Map of Milky Way at Galactic longitude $\mathit  {l}=6\ensuremath  {^\circ }-225\ensuremath  {^\circ }$ and latitude $\mathit  {l}=20\ensuremath  {^\circ }$\citep  {Hossain2018}\relax }}{xiv}{figure.caption.11}}
\@writefile{brf}{\backcite{Hossain2018}{{xiv}{9}{figure.caption.11}}}
\newlabel{fig:map-5}{{9}{xiv}{Map of Milky Way at Galactic longitude $\mathit {l}=6\degree -225\degree $ and latitude $\mathit {l}=20\degree $\citep {Hossain2018}\relax }{figure.caption.11}{}}
\bibcite{griffiths2016introduction}{{11}{2016}{{Griffiths}}{{}}}
\bibcite{Hossain2018}{{12}{2018}{{Hossain}}{{}}}
\bibcite{jansky1933radio}{{13}{1933}{{Jansky}}{{}}}
\bibcite{kellermann2001development}{{14}{2001}{{Kellermann \& Moran}}{{}}}
\bibcite{Middelberg2008}{{15}{2008}{{Middelberg \& Bach}}{{}}}
\bibcite{muller1951observation}{{16}{1951}{{Muller \& Oort}}{{}}}
\bibcite{Muller1957}{{17}{1957}{{Muller {et~al.}}}{{}}}
\bibcite{SALSAS2018}{{18}{2018}{{Observatory}}{{}}}
\bibcite{santo2013mapping}{{19}{2013}{{Santo \& Uddin}}{{}}}
\bibcite{ThomasBensby2017}{{20}{2017}{{Thomas~Bensby}}{{}}}
\@writefile{lof}{\contentsline {figure}{\numberline {10}{\ignorespaces Map of Milky Way at Galactic longitude $\mathit  {l}=6\ensuremath  {^\circ }-225\ensuremath  {^\circ }$ and latitude $\mathit  {l}=25\ensuremath  {^\circ }$\citep  {Hossain2018}\relax }}{xv}{figure.caption.12}}
\@writefile{brf}{\backcite{Hossain2018}{{xv}{10}{figure.caption.12}}}
\newlabel{fig:map-6}{{10}{xv}{Map of Milky Way at Galactic longitude $\mathit {l}=6\degree -225\degree $ and latitude $\mathit {l}=25\degree $\citep {Hossain2018}\relax }{figure.caption.12}{}}
\@writefile{lof}{\contentsline {figure}{\numberline {11}{\ignorespaces Map of Milky Way at Galactic longitude $\mathit  {l}=6\ensuremath  {^\circ }-225\ensuremath  {^\circ }$ and latitude $\mathit  {l}=30\ensuremath  {^\circ }$\citep  {Hossain2018}\relax }}{xvi}{figure.caption.13}}
\@writefile{brf}{\backcite{Hossain2018}{{xvi}{11}{figure.caption.13}}}
\newlabel{fig:map-7}{{11}{xvi}{Map of Milky Way at Galactic longitude $\mathit {l}=6\degree -225\degree $ and latitude $\mathit {l}=30\degree $\citep {Hossain2018}\relax }{figure.caption.13}{}}
\@writefile{lof}{\contentsline {figure}{\numberline {12}{\ignorespaces Map of Milky Way at Galactic longitude $\mathit  {l}=6\ensuremath  {^\circ }-225\ensuremath  {^\circ }$ and latitude $\mathit  {l}=35\ensuremath  {^\circ }$\citep  {Hossain2018}\relax }}{xvii}{figure.caption.14}}
\@writefile{brf}{\backcite{Hossain2018}{{xvii}{12}{figure.caption.14}}}
\newlabel{fig:map-8}{{12}{xvii}{Map of Milky Way at Galactic longitude $\mathit {l}=6\degree -225\degree $ and latitude $\mathit {l}=35\degree $\citep {Hossain2018}\relax }{figure.caption.14}{}}
\@writefile{lof}{\contentsline {figure}{\numberline {13}{\ignorespaces Map of Milky Way at Galactic longitude $\mathit  {l}=6\ensuremath  {^\circ }-225\ensuremath  {^\circ }$ and latitude $\mathit  {l}=0\ensuremath  {^\circ }$\citep  {Hossain2018}\relax }}{xviii}{figure.caption.15}}
\@writefile{brf}{\backcite{Hossain2018}{{xviii}{13}{figure.caption.15}}}
\newlabel{fig:rot-1}{{13}{xviii}{Map of Milky Way at Galactic longitude $\mathit {l}=6\degree -225\degree $ and latitude $\mathit {l}=0\degree $\citep {Hossain2018}\relax }{figure.caption.15}{}}
\@writefile{lof}{\contentsline {figure}{\numberline {14}{\ignorespaces Map of Milky Way at Galactic longitude $\mathit  {l}=6\ensuremath  {^\circ }-225\ensuremath  {^\circ }$ and latitude $\mathit  {l}=5\ensuremath  {^\circ }$\citep  {Hossain2018}\relax }}{xix}{figure.caption.16}}
\@writefile{brf}{\backcite{Hossain2018}{{xix}{14}{figure.caption.16}}}
\newlabel{fig:rot-2}{{14}{xix}{Map of Milky Way at Galactic longitude $\mathit {l}=6\degree -225\degree $ and latitude $\mathit {l}=5\degree $\citep {Hossain2018}\relax }{figure.caption.16}{}}
\@writefile{lof}{\contentsline {figure}{\numberline {15}{\ignorespaces Map of Milky Way at Galactic longitude $\mathit  {l}=6\ensuremath  {^\circ }-225\ensuremath  {^\circ }$ and latitude $\mathit  {l}=10\ensuremath  {^\circ }$\citep  {Hossain2018}\relax }}{xx}{figure.caption.17}}
\@writefile{brf}{\backcite{Hossain2018}{{xx}{15}{figure.caption.17}}}
\newlabel{fig:rot-3}{{15}{xx}{Map of Milky Way at Galactic longitude $\mathit {l}=6\degree -225\degree $ and latitude $\mathit {l}=10\degree $\citep {Hossain2018}\relax }{figure.caption.17}{}}
\@writefile{lof}{\contentsline {figure}{\numberline {16}{\ignorespaces Map of Milky Way at Galactic longitude $\mathit  {l}=6\ensuremath  {^\circ }-225\ensuremath  {^\circ }$ and latitude $\mathit  {l}=15\ensuremath  {^\circ }$\citep  {Hossain2018}\relax }}{xxi}{figure.caption.18}}
\@writefile{brf}{\backcite{Hossain2018}{{xxi}{16}{figure.caption.18}}}
\newlabel{fig:rot-4}{{16}{xxi}{Map of Milky Way at Galactic longitude $\mathit {l}=6\degree -225\degree $ and latitude $\mathit {l}=15\degree $\citep {Hossain2018}\relax }{figure.caption.18}{}}
\@writefile{lof}{\contentsline {figure}{\numberline {17}{\ignorespaces Map of Milky Way at Galactic longitude $\mathit  {l}=6\ensuremath  {^\circ }-225\ensuremath  {^\circ }$ and latitude $\mathit  {l}=20\ensuremath  {^\circ }$\citep  {Hossain2018}\relax }}{xxii}{figure.caption.19}}
\@writefile{brf}{\backcite{Hossain2018}{{xxii}{17}{figure.caption.19}}}
\newlabel{fig:rot-5}{{17}{xxii}{Map of Milky Way at Galactic longitude $\mathit {l}=6\degree -225\degree $ and latitude $\mathit {l}=20\degree $\citep {Hossain2018}\relax }{figure.caption.19}{}}
\@writefile{lof}{\contentsline {figure}{\numberline {18}{\ignorespaces Map of Milky Way at Galactic longitude $\mathit  {l}=6\ensuremath  {^\circ }-225\ensuremath  {^\circ }$ and latitude $\mathit  {l}=25\ensuremath  {^\circ }$\citep  {Hossain2018}\relax }}{xxiii}{figure.caption.20}}
\@writefile{brf}{\backcite{Hossain2018}{{xxiii}{18}{figure.caption.20}}}
\newlabel{fig:rot-6}{{18}{xxiii}{Map of Milky Way at Galactic longitude $\mathit {l}=6\degree -225\degree $ and latitude $\mathit {l}=25\degree $\citep {Hossain2018}\relax }{figure.caption.20}{}}
\@writefile{lof}{\contentsline {figure}{\numberline {19}{\ignorespaces Map of Milky Way at Galactic longitude $\mathit  {l}=6\ensuremath  {^\circ }-225\ensuremath  {^\circ }$ and latitude $\mathit  {l}=30\ensuremath  {^\circ }$\citep  {Hossain2018}\relax }}{xxiv}{figure.caption.21}}
\@writefile{brf}{\backcite{Hossain2018}{{xxiv}{19}{figure.caption.21}}}
\newlabel{fig:rot-7}{{19}{xxiv}{Map of Milky Way at Galactic longitude $\mathit {l}=6\degree -225\degree $ and latitude $\mathit {l}=30\degree $\citep {Hossain2018}\relax }{figure.caption.21}{}}
\@writefile{lof}{\contentsline {figure}{\numberline {20}{\ignorespaces Map of Milky Way at Galactic longitude $\mathit  {l}=6\ensuremath  {^\circ }-225\ensuremath  {^\circ }$ and latitude $\mathit  {l}=35\ensuremath  {^\circ }$\citep  {Hossain2018}\relax }}{xxv}{figure.caption.22}}
\@writefile{brf}{\backcite{Hossain2018}{{xxv}{20}{figure.caption.22}}}
\newlabel{fig:rot-8}{{20}{xxv}{Map of Milky Way at Galactic longitude $\mathit {l}=6\degree -225\degree $ and latitude $\mathit {l}=35\degree $\citep {Hossain2018}\relax }{figure.caption.22}{}}
